{
    "message": "Search results for TWS",
    "amazonCountry": {
      "base": "https://www.amazon.in",
      "code": "in"
    },
    "metadata": {
      "totalResults": 18379,
      "thisPageResults": 22,
      "page": 1,
      "query": "TWS"
    },
    "pagination": {
      "nextPage": "/api/in/search?query=TWS&page=2",
      "prevPage": null
    },
    "results": [
      {
        "id": "B07WDKJKSP",
        "productUrl": "https://www.amazon.in/dp/B07WDKJKSP",
        "apiUrl": "/api/in/product/B07WDKJKSP",
        "title": "iQOO TWS 1e in-Ear Earbuds with Mic, Upto 30dB Active Noise Cancellation, Fast Charging which Takes 10 mins for 3 Hours Playtime, with Upto 42 hrs Playback time (Flame Yellow)",
        "image": {
          "original": "https://m.media-amazon.com/images/I/51Lz0YlT7tL.jpg",
          "small": "https://m.media-amazon.com/images/I/51Lz0YlT7tL.jpg_AC_UY218_.jpg",
          "medium": "https://m.media-amazon.com/images/I/51Lz0YlT7tL.jpg_AC_UY327_.jpg",
          "large": "https://m.media-amazon.com/images/I/51Lz0YlT7tL.jpg_AC_UY436_.jpg"
        },
        "currency": "INR",
        "price": 1899,
        "originalPrice": 2099,
        "starRating": 0,
        "totalRatings": 500
      },
      {
        "id": "B0D5LTRCHT",
        "productUrl": "https://www.amazon.in/dp/B0D5LTRCHT",
        "apiUrl": "/api/in/product/B0D5LTRCHT",
        "title": "Mivi SuperPods Dueto, True Wireless Earbuds, Dual Drivers, 13mm Woofer, 6mm Tweeter, 3D Soundstage, 60H Playtime, AI-ENC, BT v5.3, Type C Charger, Made in India Earbud",
        "image": {
          "original": "https://m.media-amazon.com/images/I/71F8F7uzZjL.jpg",
          "small": "https://m.media-amazon.com/images/I/71F8F7uzZjL.jpg_AC_UY218_.jpg",
          "medium": "https://m.media-amazon.com/images/I/71F8F7uzZjL.jpg_AC_UY327_.jpg",
          "large": "https://m.media-amazon.com/images/I/71F8F7uzZjL.jpg_AC_UY436_.jpg"
        },
        "currency": "INR",
        "price": 1899,
        "originalPrice": 5999,
        "starRating": 4.3,
        "totalRatings": 605
      },
      {
        "id": "B0D3R1LVR3",
        "productUrl": "https://www.amazon.in/dp/B0D3R1LVR3",
        "apiUrl": "/api/in/product/B0D3R1LVR3",
        "title": "Boult Audio W20 Truly Wireless in Ear Earbuds with 35H Playtime, Zen™ ENC Mic, 45ms Low Latency, 13mm Bass Drivers, Type-C Fast Charging, Made in India, Touch Controls, IPX5 ear buds TWS (Space Black)",
        "image": {
          "original": "https://m.media-amazon.com/images/I/61yzSa7SHwL.jpg",
          "small": "https://m.media-amazon.com/images/I/61yzSa7SHwL.jpg_AC_UY218_.jpg",
          "medium": "https://m.media-amazon.com/images/I/61yzSa7SHwL.jpg_AC_UY327_.jpg",
          "large": "https://m.media-amazon.com/images/I/61yzSa7SHwL.jpg_AC_UY436_.jpg"
        },
        "currency": "INR",
        "price": 899,
        "originalPrice": 2499,
        "starRating": 4.1,
        "totalRatings": 2755
      },
      {
        "id": "B0C8JB3G5W",
        "productUrl": "https://www.amazon.in/dp/B0C8JB3G5W",
        "apiUrl": "/api/in/product/B0C8JB3G5W",
        "title": "OnePlus Nord Buds 2r True Wireless in Ear Earbuds with Mic, 12.4mm Drivers, Playback:Upto 38hr case,4-Mic Design, IP55 Rating [Deep Grey]",
        "image": {
          "original": "https://m.media-amazon.com/images/I/51oMWaW7tKL.jpg",
          "small": "https://m.media-amazon.com/images/I/51oMWaW7tKL.jpg_AC_UY218_.jpg",
          "medium": "https://m.media-amazon.com/images/I/51oMWaW7tKL.jpg_AC_UY327_.jpg",
          "large": "https://m.media-amazon.com/images/I/51oMWaW7tKL.jpg_AC_UY436_.jpg"
        },
        "currency": "INR",
        "price": 1998,
        "originalPrice": 2299,
        "starRating": 4.2,
        "totalRatings": 74445
      },
      {
        "id": "B0CH1L1YLC",
        "productUrl": "https://www.amazon.in/dp/B0CH1L1YLC",
        "apiUrl": "/api/in/product/B0CH1L1YLC",
        "title": "realme Buds T300 TWS earbuds with 40H Play time,30dB ANC, 360° Spatial Audio with Dolby Atmos, 12.4 mm Dynamic Bass Boost Driver, IP55 Water & Dust Resistant, BT v5.3 (Stylish Black)",
        "image": {
          "original": "https://m.media-amazon.com/images/I/61ZEQXGTepL.jpg",
          "small": "https://m.media-amazon.com/images/I/61ZEQXGTepL.jpg_AC_UY218_.jpg",
          "medium": "https://m.media-amazon.com/images/I/61ZEQXGTepL.jpg_AC_UY327_.jpg",
          "large": "https://m.media-amazon.com/images/I/61ZEQXGTepL.jpg_AC_UY436_.jpg"
        },
        "currency": "INR",
        "price": 2299,
        "originalPrice": 3999,
        "starRating": 4.1,
        "totalRatings": 7884
      },
      {
        "id": "B0D3R1JQ7D",
        "productUrl": "https://www.amazon.in/dp/B0D3R1JQ7D",
        "apiUrl": "/api/in/product/B0D3R1JQ7D",
        "title": "Boult Audio W20 Truly Wireless in Ear Earbuds with 35H Playtime, Zen™ ENC Mic, 45ms Low Latency, 13mm Bass Drivers, Type-C Fast Charging, Made in India, Touch Control, IPX5 ear buds TWS (Glacier Blue)",
        "image": {
          "original": "https://m.media-amazon.com/images/I/710dy4BFjLL.jpg",
          "small": "https://m.media-amazon.com/images/I/710dy4BFjLL.jpg_AC_UY218_.jpg",
          "medium": "https://m.media-amazon.com/images/I/710dy4BFjLL.jpg_AC_UY327_.jpg",
          "large": "https://m.media-amazon.com/images/I/710dy4BFjLL.jpg_AC_UY436_.jpg"
        },
        "currency": "INR",
        "price": 899,
        "originalPrice": 2499,
        "starRating": 4.1,
        "totalRatings": 2755
      },
      {
        "id": "B0BYJ6ZMTS",
        "productUrl": "https://www.amazon.in/dp/B0BYJ6ZMTS",
        "apiUrl": "/api/in/product/B0BYJ6ZMTS",
        "title": "OnePlus Nord Buds 2 TWS in Ear Earbuds with Mic,Upto 25dB ANC 12.4mm Dynamic Titanium Drivers, Playback:Upto 36hr case, 4-Mic Design, IP55 Rating, Fast Charging [Thunder Gray]",
        "image": {
          "original": "https://m.media-amazon.com/images/I/61-ZYvldY+L.jpg",
          "small": "https://m.media-amazon.com/images/I/61-ZYvldY+L.jpg_AC_UY218_.jpg",
          "medium": "https://m.media-amazon.com/images/I/61-ZYvldY+L.jpg_AC_UY327_.jpg",
          "large": "https://m.media-amazon.com/images/I/61-ZYvldY+L.jpg_AC_UY436_.jpg"
        },
        "currency": "INR",
        "price": 2999,
        "originalPrice": 3299,
        "starRating": 4.2,
        "totalRatings": 74445
      },
      {
        "id": "B0D9M3C2L9",
        "productUrl": "https://www.amazon.in/dp/B0D9M3C2L9",
        "apiUrl": "/api/in/product/B0D9M3C2L9",
        "title": "Boult Audio Z40 Pro with 100H Playtime, Quad Mic ENC, 45ms Low Latency Gaming, Premium Rubber Grip Case, 13mm Bass Drivers, Made in India TWS Bluetooth 5.3 Truly Wireless in Ear Earbuds (Metal)",
        "image": {
          "original": "https://m.media-amazon.com/images/I/81dfnAoUGuL.jpg",
          "small": "https://m.media-amazon.com/images/I/81dfnAoUGuL.jpg_AC_UY218_.jpg",
          "medium": "https://m.media-amazon.com/images/I/81dfnAoUGuL.jpg_AC_UY327_.jpg",
          "large": "https://m.media-amazon.com/images/I/81dfnAoUGuL.jpg_AC_UY436_.jpg"
        },
        "currency": "INR",
        "price": 1599,
        "originalPrice": 5499,
        "starRating": 4.8,
        "totalRatings": 26
      },
      {
        "id": "B0CRH561RC",
        "productUrl": "https://www.amazon.in/dp/B0CRH561RC",
        "apiUrl": "/api/in/product/B0CRH561RC",
        "title": "OnePlus Buds 3 in Ear TWS Bluetooth Earbuds with Upto 49dB Smart Adaptive Noise Cancellation,Hi-Res Sound Quality,Sliding Volume Control,10mins for 7Hours Fast Charging with Upto 44Hrs Playback(Gray)",
        "image": {
          "original": "https://m.media-amazon.com/images/I/51h7CQTRJ1L.jpg",
          "small": "https://m.media-amazon.com/images/I/51h7CQTRJ1L.jpg_AC_UY218_.jpg",
          "medium": "https://m.media-amazon.com/images/I/51h7CQTRJ1L.jpg_AC_UY327_.jpg",
          "large": "https://m.media-amazon.com/images/I/51h7CQTRJ1L.jpg_AC_UY436_.jpg"
        },
        "currency": "INR",
        "price": 5499,
        "originalPrice": 6499,
        "starRating": 4.3,
        "totalRatings": 3707
      },
      {
        "id": "B0CVLB99YR",
        "productUrl": "https://www.amazon.in/dp/B0CVLB99YR",
        "apiUrl": "/api/in/product/B0CVLB99YR",
        "title": "Boult Audio UFO Truly Wireless in Ear Earbuds with 48H Playtime, Built-in App Support, 45ms Low Latency Gaming, 4 Mics ENC, Breathing LEDs, 13mm Bass Drivers Ear Buds TWS, Made in India (Black Gloss)",
        "image": {
          "original": "https://m.media-amazon.com/images/I/71UEM43FlwL.jpg",
          "small": "https://m.media-amazon.com/images/I/71UEM43FlwL.jpg_AC_UY218_.jpg",
          "medium": "https://m.media-amazon.com/images/I/71UEM43FlwL.jpg_AC_UY327_.jpg",
          "large": "https://m.media-amazon.com/images/I/71UEM43FlwL.jpg_AC_UY436_.jpg"
        },
        "currency": "INR",
        "price": 1499,
        "originalPrice": 3499,
        "starRating": 4.2,
        "totalRatings": 6463
      },
      {
        "id": "B0CZ3ZPD8B",
        "productUrl": "https://www.amazon.in/dp/B0CZ3ZPD8B",
        "apiUrl": "/api/in/product/B0CZ3ZPD8B",
        "title": "boAt Airdopes 311 Pro Truly Wireless in Ear Ear Buds w/Up to 50 HRS Playtime, Dual Mics with ENx™ Tech, 50 ms Low-Latency Beast™ Mode, ASAP™ Charging, IWP™ Tech(Active Black)",
        "image": {
          "original": "https://m.media-amazon.com/images/I/614gbl-O98L.jpg",
          "small": "https://m.media-amazon.com/images/I/614gbl-O98L.jpg_AC_UY218_.jpg",
          "medium": "https://m.media-amazon.com/images/I/614gbl-O98L.jpg_AC_UY327_.jpg",
          "large": "https://m.media-amazon.com/images/I/614gbl-O98L.jpg_AC_UY436_.jpg"
        },
        "currency": "INR",
        "price": 1199,
        "originalPrice": 4990,
        "starRating": 3.7,
        "totalRatings": 12101
      },
      {
        "id": "B0CHVW97GR",
        "productUrl": "https://www.amazon.in/dp/B0CHVW97GR",
        "apiUrl": "/api/in/product/B0CHVW97GR",
        "title": "Boult Audio Z40 Pro with 100H Playtime, Quad Mic ENC, 45ms Low Latency Gaming, Premium Rubber Grip Case, 13mm Bass Drivers, Made in India TWS Bluetooth 5.3 Truly Wireless in Ear Earbuds (Dawn)",
        "image": {
          "original": "https://m.media-amazon.com/images/I/71sLUlRSLgL.jpg",
          "small": "https://m.media-amazon.com/images/I/71sLUlRSLgL.jpg_AC_UY218_.jpg",
          "medium": "https://m.media-amazon.com/images/I/71sLUlRSLgL.jpg_AC_UY327_.jpg",
          "large": "https://m.media-amazon.com/images/I/71sLUlRSLgL.jpg_AC_UY436_.jpg"
        },
        "currency": "INR",
        "price": 1599,
        "originalPrice": 5499,
        "starRating": 3.8,
        "totalRatings": 25938
      },
      {
        "id": "B0D677H3WQ",
        "productUrl": "https://www.amazon.in/dp/B0D677H3WQ",
        "apiUrl": "/api/in/product/B0D677H3WQ",
        "title": "pTron Newly Launched Bassbuds Bliss Quad Mic in-Ear TWS Earbuds with TruTalk ENC Calls, 40H Playtime, 50ms Game/Music Modes, BT5.3 Headphones, Type C Fast Charging & IPX5 Water Resistant (Black)",
        "image": {
          "original": "https://m.media-amazon.com/images/I/51qpz1lG5qL.jpg",
          "small": "https://m.media-amazon.com/images/I/51qpz1lG5qL.jpg_AC_UY218_.jpg",
          "medium": "https://m.media-amazon.com/images/I/51qpz1lG5qL.jpg_AC_UY327_.jpg",
          "large": "https://m.media-amazon.com/images/I/51qpz1lG5qL.jpg_AC_UY436_.jpg"
        },
        "currency": "INR",
        "price": 799,
        "originalPrice": 2899,
        "starRating": 4.5,
        "totalRatings": 274
      },
      {
        "id": "B0D44H2RG3",
        "productUrl": "https://www.amazon.in/dp/B0D44H2RG3",
        "apiUrl": "/api/in/product/B0D44H2RG3",
        "title": "JBL New Launch Live Beam 3,Hi-Res Audio True ANC TWS,Smart Case with Touch Display,48H Playtime,Wireless Charging,6 Mic,Multipoint Connection,Ip55 Proof,in Ear Headphones App,Personi-Fi 3.0 (Black)",
        "image": {
          "original": "https://m.media-amazon.com/images/I/61WhNisADUL.jpg",
          "small": "https://m.media-amazon.com/images/I/61WhNisADUL.jpg_AC_UY218_.jpg",
          "medium": "https://m.media-amazon.com/images/I/61WhNisADUL.jpg_AC_UY327_.jpg",
          "large": "https://m.media-amazon.com/images/I/61WhNisADUL.jpg_AC_UY436_.jpg"
        },
        "currency": "INR",
        "price": 14998,
        "originalPrice": 24999,
        "starRating": 4.2,
        "totalRatings": 102
      },
      {
        "id": "B0BKZLW5T5",
        "productUrl": "https://www.amazon.in/dp/B0BKZLW5T5",
        "apiUrl": "/api/in/product/B0BKZLW5T5",
        "title": "boAt Immortal 121 in Ear TWS Earbuds with Beast Mode(40ms Low Latency) for Gaming, 40H Playtime, Blazing LEDs, Quad Mics ENx Signature Sound, ASAP Charge(10 Mins= 180 Mins)(White Sabre)",
        "image": {
          "original": "https://m.media-amazon.com/images/I/51t132kBEcL.jpg",
          "small": "https://m.media-amazon.com/images/I/51t132kBEcL.jpg_AC_UY218_.jpg",
          "medium": "https://m.media-amazon.com/images/I/51t132kBEcL.jpg_AC_UY327_.jpg",
          "large": "https://m.media-amazon.com/images/I/51t132kBEcL.jpg_AC_UY436_.jpg"
        },
        "currency": "INR",
        "price": 1099,
        "originalPrice": 3499,
        "starRating": 3.7,
        "totalRatings": 8213
      },
      {
        "id": "B0D3HY9X3L",
        "productUrl": "https://www.amazon.in/dp/B0D3HY9X3L",
        "apiUrl": "/api/in/product/B0D3HY9X3L",
        "title": "realme Buds Air 6 TWS in Ear Earbuds with 12.4 Mm Deep Bass Driver, 40 Hours Play Time, Fast Charge,50 Db ANC,Lhdc 5.0, 55 Ms Low Latency, Ip55 Dust & Water Resistant, Bluetooth V5.3 (Forrest Green)",
        "image": {
          "original": "https://m.media-amazon.com/images/I/71fYAthCwfL.jpg",
          "small": "https://m.media-amazon.com/images/I/71fYAthCwfL.jpg_AC_UY218_.jpg",
          "medium": "https://m.media-amazon.com/images/I/71fYAthCwfL.jpg_AC_UY327_.jpg",
          "large": "https://m.media-amazon.com/images/I/71fYAthCwfL.jpg_AC_UY436_.jpg"
        },
        "currency": "INR",
        "price": 3298,
        "originalPrice": 5999,
        "starRating": 4,
        "totalRatings": 636
      },
      {
        "id": "B0D6N5ZMZH",
        "productUrl": "https://www.amazon.in/dp/B0D6N5ZMZH",
        "apiUrl": "/api/in/product/B0D6N5ZMZH",
        "title": "Amazon Basics TWS in-Ear Earbuds (S19) with Fast Charging up to 50 Hours of Playtime | Dual 10mm Driver | IPX4 Water-Resistance | Bluetooth 5.3 | Touch Control (Purple)",
        "image": {
          "original": "https://m.media-amazon.com/images/I/51WzN6mIExL.jpg",
          "small": "https://m.media-amazon.com/images/I/51WzN6mIExL.jpg_AC_UY218_.jpg",
          "medium": "https://m.media-amazon.com/images/I/51WzN6mIExL.jpg_AC_UY327_.jpg",
          "large": "https://m.media-amazon.com/images/I/51WzN6mIExL.jpg_AC_UY436_.jpg"
        },
        "currency": "INR",
        "price": 599,
        "originalPrice": 1999,
        "starRating": 3.4,
        "totalRatings": 80
      },
      {
        "id": "B0D63CNLJ9",
        "productUrl": "https://www.amazon.in/dp/B0D63CNLJ9",
        "apiUrl": "/api/in/product/B0D63CNLJ9",
        "title": "Boult x Mustang Torq Newly Launched Truly Wireless in Ear Earbuds with 50H Playtime, App Support, Quad Mic ENC, 45ms Low Latency, Breathing LEDs, 13mm Drivers, Made in India ear buds TWS Bluetooth 5.4",
        "image": {
          "original": "https://m.media-amazon.com/images/I/719xn0KawFL.jpg",
          "small": "https://m.media-amazon.com/images/I/719xn0KawFL.jpg_AC_UY218_.jpg",
          "medium": "https://m.media-amazon.com/images/I/719xn0KawFL.jpg_AC_UY327_.jpg",
          "large": "https://m.media-amazon.com/images/I/719xn0KawFL.jpg_AC_UY436_.jpg"
        },
        "currency": "INR",
        "price": 1999,
        "originalPrice": 5999,
        "starRating": 4.1,
        "totalRatings": 1052
      },
      {
        "id": "B0CYH3H268",
        "productUrl": "https://www.amazon.in/dp/B0CYH3H268",
        "apiUrl": "/api/in/product/B0CYH3H268",
        "title": "pTron Bassbuds GoMax In-Ear TWS Earbuds, HD Mic & TruTalk AI-ENC Calls, 36H Playtime, 13mm Drivers, Bluetooth 5.3 Wireless Headphones, Voice Assist, Type-C Fast Charging & IPX5 Water Resistant (Black)",
        "image": {
          "original": "https://m.media-amazon.com/images/I/518Zs64gNBL.jpg",
          "small": "https://m.media-amazon.com/images/I/518Zs64gNBL.jpg_AC_UY218_.jpg",
          "medium": "https://m.media-amazon.com/images/I/518Zs64gNBL.jpg_AC_UY327_.jpg",
          "large": "https://m.media-amazon.com/images/I/518Zs64gNBL.jpg_AC_UY436_.jpg"
        },
        "currency": "INR",
        "price": 699,
        "originalPrice": 2899,
        "starRating": 4.1,
        "totalRatings": 1134
      },
      {
        "id": "B0D7ZPN4HW",
        "productUrl": "https://www.amazon.in/dp/B0D7ZPN4HW",
        "apiUrl": "/api/in/product/B0D7ZPN4HW",
        "title": "Redmi Buds 5C Bluetooth TWS in Ear Earbuds, Up to 40Db Hybrid Noise Cancellation, Quad Mic, Custom Eq, 10Mins Charge for 2Hours Life, Up to 36Hrs Playback, Gaming TWS| Acoustic Black",
        "image": {
          "original": "https://m.media-amazon.com/images/I/61lwOHatDzL.jpg",
          "small": "https://m.media-amazon.com/images/I/61lwOHatDzL.jpg_AC_UY218_.jpg",
          "medium": "https://m.media-amazon.com/images/I/61lwOHatDzL.jpg_AC_UY327_.jpg",
          "large": "https://m.media-amazon.com/images/I/61lwOHatDzL.jpg_AC_UY436_.jpg"
        },
        "currency": "INR",
        "price": 1799,
        "originalPrice": 4999,
        "starRating": 4.1,
        "totalRatings": 1038
      },
      {
        "id": "B0CTCWQLLP",
        "productUrl": "https://www.amazon.in/dp/B0CTCWQLLP",
        "apiUrl": "/api/in/product/B0CTCWQLLP",
        "title": "Boult Audio K40 True Wireless in Ear Earbuds with 48H Playtime, Clear Calling 4 Mics, 45ms Low Latency Gaming, Premium Grip, 13mm Bass Drivers, Type-C Fast Charging, BTv 5.3 Ear Buds TWS (Denim Blue)",
        "image": {
          "original": "https://m.media-amazon.com/images/I/519+z0buw7L.jpg",
          "small": "https://m.media-amazon.com/images/I/519+z0buw7L.jpg_AC_UY218_.jpg",
          "medium": "https://m.media-amazon.com/images/I/519+z0buw7L.jpg_AC_UY327_.jpg",
          "large": "https://m.media-amazon.com/images/I/519+z0buw7L.jpg_AC_UY436_.jpg"
        },
        "currency": "INR",
        "price": 1299,
        "originalPrice": 2999,
        "starRating": 4,
        "totalRatings": 3314
      },
      {
        "id": "B0D54BMMG3",
        "productUrl": "https://www.amazon.in/dp/B0D54BMMG3",
        "apiUrl": "/api/in/product/B0D54BMMG3",
        "title": "Boult Newly Launched Klarity 1 in Ear TWS Earbuds with 80Hrs Playtime, Liquid Metal Body, Dual Device Pairing, 4 Mics ENC, 45ms Low Latency, 13mm Bass Drivers Ear Buds Bluetooth 5.4 (Midnight Black)",
        "image": {
          "original": "https://m.media-amazon.com/images/I/71vcA-D-3dL.jpg",
          "small": "https://m.media-amazon.com/images/I/71vcA-D-3dL.jpg_AC_UY218_.jpg",
          "medium": "https://m.media-amazon.com/images/I/71vcA-D-3dL.jpg_AC_UY327_.jpg",
          "large": "https://m.media-amazon.com/images/I/71vcA-D-3dL.jpg_AC_UY436_.jpg"
        },
        "currency": "INR",
        "price": 1099,
        "originalPrice": 3499,
        "starRating": 4,
        "totalRatings": 243
      }
    ]
  }